<svg xmlns="http://www.w3.org/2000/svg" xmlns:xlink="http://www.w3.org/1999/xlink" version="1.1" width="1280" height="1024" viewBox="0 0 1280 1024" xml:space="preserve">
<desc>Created with Fabric.js 3.6.3</desc>
<defs>
</defs>
<g transform="matrix(1.9692780337941629 0 0 1.9692780337941629 640.0153846153846 512.012312418764)" id="background-logo">
<rect style="stroke: none; stroke-width: 1; stroke-dasharray: none; stroke-linecap: butt; stroke-dashoffset: 0; stroke-linejoin: miter; stroke-miterlimit: 4; fill: none; fill-rule: nonzero; opacity: 1;" paint-order="stroke" x="-325" y="-260" rx="0" ry="0" width="650" height="520"/>
</g>
<g transform="matrix(1.9692780337941629 0 0 1.9692780337941629 640.0153846153846 395.95621713020483)" id="logo-logo">
<g style="" paint-order="stroke">
		<g transform="matrix(1.246116777507345 0 0 1.246116777507345 0 -2.842171e-14)">
<g style="" paint-order="stroke">
		<g transform="matrix(1 0 0 1 0 0)">
<linearGradient id="SVGID_1_302531" gradientUnits="userSpaceOnUse" gradientTransform="matrix(1 0 0 1 -100 -100)" x1="0" y1="0" x2="0" y2="201">
<stop offset="0%" style="stop-color:rgb(91,36,122);stop-opacity: 1"/>
<stop offset="100%" style="stop-color:rgb(27,206,223);stop-opacity: 1"/>
</linearGradient>
<polygon style="stroke: none; stroke-width: 1; stroke-dasharray: none; stroke-linecap: butt; stroke-dashoffset: 0; stroke-linejoin: miter; stroke-miterlimit: 4; fill: url(#SVGID_1_302531); fill-rule: nonzero; opacity: 1;" paint-order="stroke" points="100,100 0,100 0,95.12 95.12,95.12 95.12,-95.12 -95.12,-95.12 -95.12,0 -100,0 -100,-100 100,-100 100,100 "/>
</g>
</g>
</g>
</g>
</g>
<g transform="matrix(1.9692780337941629 0 0 1.9692780337941629 643.6029707208954 786.1450143922766)" id="text-logo-path">
<path style="stroke: rgb(255,255,255); stroke-width: 0; stroke-dasharray: none; stroke-linecap: butt; stroke-dashoffset: 0; stroke-linejoin: miter; stroke-miterlimit: 10; fill: rgb(28,204,222); fill-rule: nonzero; opacity: 1;" paint-order="stroke" transform=" translate(-110.885, 29.57)" d="M 7.29 -11.38 L 7.29 -11.38 L 7.29 -19.11 L 13.64 -19.11 L 13.64 -11.02 Q 13.64 -7.73 15.93 -5.91 Q 18.22 -4.09 22.66 -4.09 Q 27.1 -4.09 29.39 -5.91 Q 31.68 -7.73 31.68 -10.86 Q 31.68 -14 30.99 -15.86 Q 30.3 -17.73 28.22 -19.82 L 28.22 -19.82 L 12.17 -35.5 Q 9.38 -38.3 8.33 -40.99 Q 7.29 -43.68 7.29 -47.77 L 7.29 -47.77 Q 7.29 -53.85 11.06 -57.19 Q 14.84 -60.52 22.48 -60.52 L 22.48 -60.52 Q 37.15 -60.52 37.15 -47.77 L 37.15 -47.77 L 37.15 -40.03 L 30.75 -40.03 L 30.75 -48.12 Q 30.75 -51.41 28.62 -53.23 Q 26.48 -55.05 22.19 -55.05 Q 17.91 -55.05 15.77 -53.23 Q 13.64 -51.41 13.64 -48.23 Q 13.64 -45.06 14.29 -43.23 Q 14.93 -41.41 17.11 -39.41 L 17.11 -39.41 L 33.41 -23.77 Q 36.04 -20.84 37.04 -18.15 Q 38.04 -15.46 38.04 -11.38 L 38.04 -11.38 Q 38.04 1.38 22.66 1.38 Q 7.29 1.38 7.29 -11.38 Z M 53.01 -11.38 L 53.01 -11.38 L 53.01 -47.77 Q 53.01 -53.85 56.74 -57.19 Q 60.47 -60.52 67.94 -60.52 Q 75.4 -60.52 79.23 -57.19 Q 83.05 -53.85 83.05 -47.77 L 83.05 -47.77 L 83.05 -39.15 L 76.69 -39.15 L 76.69 -47.77 Q 76.69 -55.05 68.03 -55.05 Q 59.36 -55.05 59.36 -47.77 L 59.36 -47.77 L 59.36 -11.38 Q 59.36 -4.09 68.03 -4.09 Q 76.69 -4.09 76.69 -11.38 L 76.69 -11.38 L 76.69 -16.4 L 83.05 -16.4 L 83.05 -11.38 Q 83.05 -5.29 79.31 -1.96 Q 75.58 1.38 68.12 1.38 Q 60.65 1.38 56.83 -1.96 Q 53.01 -5.29 53.01 -11.38 Z M 97.58 -11.38 L 97.58 -11.38 L 97.58 -47.77 Q 97.58 -53.85 101.44 -57.19 Q 105.31 -60.52 112.99 -60.52 Q 120.68 -60.52 124.59 -57.19 Q 128.5 -53.85 128.5 -47.77 L 128.5 -47.77 L 128.5 -11.38 Q 128.5 -5.29 124.64 -1.96 Q 120.77 1.38 113.08 1.38 Q 105.4 1.38 101.49 -1.96 Q 97.58 -5.29 97.58 -11.38 Z M 103.93 -47.77 L 103.93 -11.38 Q 103.93 -4.09 113.04 -4.09 Q 122.15 -4.09 122.15 -11.38 L 122.15 -11.38 L 122.15 -47.77 Q 122.15 -55.05 113.04 -55.05 Q 103.93 -55.05 103.93 -47.77 L 103.93 -47.77 Z M 144.41 -11.38 L 144.41 -11.38 L 144.41 -59.14 L 150.81 -59.14 L 150.81 -11.38 Q 150.81 -7.91 152.3 -6 Q 153.78 -4.09 157.78 -4.09 Q 161.78 -4.09 165.16 -7.18 Q 168.54 -10.26 168.54 -13.2 L 168.54 -13.2 L 168.54 -59.14 L 174.89 -59.14 L 174.89 0 L 172.18 0 L 169.83 -5.82 Q 167.83 -2.53 164.67 -0.58 Q 161.52 1.38 157.78 1.38 L 157.78 1.38 Q 144.41 1.38 144.41 -11.38 Z M 191.73 -10.49 L 191.73 -10.49 L 191.73 -59.14 L 211.77 -59.14 L 211.77 -53.68 L 198.08 -53.68 L 198.08 -10.09 Q 198.08 -7.55 199.42 -5.82 Q 200.75 -4.09 203.15 -4.09 Q 205.55 -4.09 206.84 -5.78 Q 208.13 -7.46 208.13 -10.09 L 208.13 -10.09 L 208.13 -20.93 L 214.48 -20.93 L 214.48 -10.49 Q 214.48 -4.75 211.44 -1.69 Q 208.39 1.38 203.19 1.38 Q 198 1.38 194.86 -1.67 Q 191.73 -4.71 191.73 -10.49 Z" stroke-linecap="round"/>
</g>
<g transform="matrix(1.9692780337941629 0 0 1.9692780337941629 640.1293296578673 392.8845637032605)" id="tagline-3a78d944-c0db-44d4-8ad5-60158c925687-logo-path">
<linearGradient id="SVGID_4_302534" gradientUnits="userSpaceOnUse" gradientTransform="matrix(1 0 0 1 18.979999999999997 -157.61)" x1="0" y1="0" x2="0" y2="268">
<stop offset="0%" style="stop-color:rgb(91,36,122);stop-opacity: 1"/>
<stop offset="100%" style="stop-color:rgb(27,206,223);stop-opacity: 1"/>
</linearGradient>
<path style="stroke: rgb(255,255,255); stroke-width: 0; stroke-dasharray: none; stroke-linecap: butt; stroke-dashoffset: 0; stroke-linejoin: miter; stroke-miterlimit: 4; fill: url(#SVGID_4_302534); fill-rule: nonzero; opacity: 1;" paint-order="stroke" transform=" translate(-59.019999999999996, 77.01)" d="M 18.98 -29.63 L 18.98 -29.63 L 18.98 -49.76 L 35.53 -49.76 L 35.53 -28.7 Q 35.53 -20.14 41.49 -15.39 Q 47.45 -10.65 59.02 -10.65 Q 70.59 -10.65 76.55 -15.39 Q 82.51 -20.14 82.51 -28.29 Q 82.51 -36.45 80.72 -41.31 Q 78.92 -46.17 73.48 -51.61 L 73.48 -51.61 L 31.71 -92.46 Q 24.42 -99.75 21.7 -106.75 Q 18.98 -113.76 18.98 -124.4 L 18.98 -124.4 Q 18.98 -140.26 28.81 -148.94 Q 38.65 -157.61 58.56 -157.61 L 58.56 -157.61 Q 96.74 -157.61 96.74 -124.4 L 96.74 -124.4 L 96.74 -104.27 L 80.08 -104.27 L 80.08 -125.33 Q 80.08 -133.89 74.53 -138.64 Q 68.97 -143.38 57.8 -143.38 Q 46.64 -143.38 41.08 -138.64 Q 35.53 -133.89 35.53 -125.62 Q 35.53 -117.34 37.2 -112.6 Q 38.88 -107.85 44.55 -102.65 L 44.55 -102.65 L 87.02 -61.91 Q 93.85 -54.27 96.45 -47.27 Q 99.06 -40.27 99.06 -29.63 L 99.06 -29.63 Q 99.06 3.59 59.02 3.59 Q 18.98 3.59 18.98 -29.63 Z" stroke-linecap="round"/>
</g>
</svg>